# compile vhdl design source files
vhdl xil_defaultlib  "../../../take_3.srcs/sources_1/imports/Undo/sqrt.vhd"
vhdl xil_defaultlib  "../../../take_3.srcs/sources_1/imports/Undo/Sensor.vhd"
vhdl xil_defaultlib  "../../../take_3.srcs/sources_1/new/thresholding.vhd"
vhdl xil_defaultlib  "../../../take_3.srcs/sim_1/new/thresholding_sim.vhd"

# Do not sort compile order
nosort
