x, mean, variance, stdev
15125, 15125, 0, 0
25747, 20436, 56413442, 7510
8985, 16619, 71915188, 8480
25308, 18791, 66818863, 8174
24059, 19844, 55665302, 7460
10427, 18275, 59313165, 7701
9654, 17044, 60045835, 7748
2613, 15241, 77501383, 8803
13864, 15088, 68024391, 8247
14563, 15036, 60493717, 7777
21264, 15602, 57970639, 7613
17892, 15792, 53137762, 7289
11664, 15475, 50020600, 7072
30406, 16541, 62097347, 7880
19462, 16735, 58230791, 7630
24024, 17190, 57669607, 7594
4923, 16469, 62917430, 7932
3408, 15744, 68694081, 8288
32666, 16634, 79949605, 8941
5894, 16097, 81509111, 9028
7695, 15697, 80795295, 8988
5667, 15242, 81521103, 9028
3763, 14743, 83544662, 9140
12436, 14647, 80134059, 8951
27438, 15158, 83339868, 9129
6526, 14826, 82872097, 9103
22299, 15102, 81753293, 9041
12204, 14999, 79025390, 8889
25193, 15350, 79786609, 8932
32472, 15920, 86807876, 9317
13419, 15840, 84116111, 9171
26215, 16164, 84766531, 9206
13623, 16087, 82313234, 9072
22916, 16287, 81190694, 9010
31332, 16716, 85270313, 9234
19792, 16801, 83096884, 9115
19916, 16885, 81050903, 9002
7913, 16649, 80978700, 8998
25338, 16871, 80783728, 8987
3234, 16531, 83361868, 9130
3102, 16204, 85676490, 9256
15853, 16196, 83589756, 9142
11204, 16080, 82179071, 9065
493, 15726, 85789716, 9262
3681, 15459, 87064177, 9330
4392, 15219, 87792137, 9369
1131, 14920, 90106644, 9492
10565, 14830, 88584674, 9411
3639, 14602, 89295138, 9449
19674, 14703, 334944, 578
10927, 14629, 607820, 779
23817, 14805, 2219475, 1489
31623, 15122, 7513597, 2741
5507, 14944, 9083846, 3013
21267, 15058, 9642654, 3105
7500, 14924, 10487526, 3238
190, 14666, 14108987, 3756
31110, 14949, 18523768, 4303
3850, 14761, 20292344, 4504
13339, 14738, 19982125, 4470
6297, 14600, 20817183, 4562
9680, 14521, 20866372, 4567
28794, 14747, 23763573, 4874
11424, 14696, 23558958, 4853
27375, 14891, 25664047, 5065
17931, 14937, 25409243, 5040
10583, 14873, 25307264, 5030
18065, 14919, 25079425, 5007
1043, 14718, 27501114, 5244
21483, 14814, 27756399, 5268
8251, 14722, 27966582, 5288
13760, 14709, 27585544, 5252
9073, 14632, 27637558, 5257
5883, 14514, 28293381, 5319
2175, 14350, 29941137, 5471
1229, 14178, 31807306, 5639
25787, 14328, 33139151, 5756
3591, 14191, 34186853, 5846
14224, 14191, 33748574, 5809
28569, 14370, 35905595, 5992
22392, 14469, 36251254, 6020
21318, 14552, 36375810, 6031
14749, 14554, 35932671, 5994
20728, 14627, 35953574, 5996
7749, 14547, 36082182, 6006
5628, 14444, 36582743, 6048
4267, 14328, 37347953, 6111
8785, 14266, 37267875, 6104
17707, 14304, 36977442, 6080
20074, 14368, 36931893, 6077
13877, 14363, 36524190, 6043
3137, 14241, 37492644, 6123
10698, 14203, 37220096, 6100
13120, 14192, 36832364, 6068
32412, 14383, 39935087, 6319
23337, 14476, 40349890, 6352
5204, 14381, 40815924, 6388
26889, 14508, 41991652, 6480
6165, 14424, 42266277, 6501
16479, 14444, 41881586, 6471
21296, 14511, 41927679, 6475
20836, 14573, 41904766, 6473
21727, 14642, 41990857, 6480
15415, 14649, 41588927, 6448
5864, 14566, 626339, 791
11292, 14536, 721525, 849
1088, 14411, 2404980, 1550
22971, 14490, 3060983, 1749
23356, 14571, 3753824, 1937
944, 14448, 5407633, 2325
16151, 14463, 5384606, 2320
21655, 14527, 5797939, 2407
14417, 14527, 5746280, 2397
93, 14401, 7523054, 2742
230, 14278, 9203327, 3033
15577, 14289, 9137847, 3022
32258, 14442, 11818863, 3437
3398, 14349, 12751546, 3570
12456, 14334, 12673610, 3560
13309, 14326, 12575869, 3546
1224, 14218, 13889798, 3726
2232, 14120, 14952606, 3866
17684, 14148, 14933341, 3864
30250, 14277, 16902967, 4111
3581, 14192, 17681937, 4204
292, 14082, 19073929, 4367
10618, 14055, 19017039, 4360
12638, 14044, 18882986, 4345
13902, 14043, 18735619, 4328
2018, 13951, 19702741, 4438
17471, 13977, 19645788, 4432
13960, 13977, 19495822, 4415
20235, 14024, 19642585, 4431
10943, 14002, 19565759, 4423
14230, 14003, 19420132, 4406
3892, 13929, 20028013, 4475
29395, 14041, 21626815, 4650
12654, 14031, 21482895, 4634
2916, 13952, 22216100, 4713
10130, 13925, 22160621, 4707
1739, 13839, 23055549, 4801
20274, 13884, 23183664, 4814
13572, 13882, 23021079, 4798
21210, 13932, 23233052, 4820
16935, 13952, 23133919, 4809
16482, 13969, 23018223, 4797
6986, 13922, 23192304, 4815
17034, 13943, 23099970, 4806
9586, 13914, 23071302, 4803
2700, 13840, 23754877, 4873
7800, 13800, 23838111, 4882
4204, 13737, 24286062, 4928
29918, 13842, 25837639, 5083
28018, 13934, 26973698, 5193
3082, 13864, 27558325, 5249
10702, 13844, 27444626, 5238
23982, 13908, 391539, 625
31610, 14020, 2372345, 1540
25627, 14093, 3204641, 1790
18824, 14122, 3324393, 1823
21229, 14166, 3617345, 1901
29845, 14262, 5112429, 2261
1541, 14184, 6073659, 2464
25238, 14251, 6781491, 2604
11661, 14236, 6780806, 2603
24316, 14296, 7351841, 2711
11660, 14281, 7349173, 2710
26109, 14351, 8137943, 2852
2957, 14284, 8857716, 2976
995, 14206, 9844126, 3137
28464, 14289, 10975085, 3312
28530, 14371, 12090074, 3477
24876, 14431, 12657718, 3557
25391, 14493, 13274968, 3643
26208, 14559, 13982974, 3739
22141, 14602, 14229704, 3772
21533, 14641, 14420265, 3797
29860, 14726, 15640062, 3954
927, 14649, 16615960, 4076
2811, 14584, 17301730, 4159
12262, 14572, 17235408, 4151
30672, 14660, 18564457, 4308
21468, 14697, 18715734, 4326
27600, 14767, 19518294, 4417
28198, 14839, 20387351, 4515
16927, 14850, 20300591, 4505
19276, 14873, 20296221, 4505
4689, 14819, 20739364, 4554
16164, 14826, 20638620, 4542
31300, 14912, 21957865, 4685
14516, 14910, 21843119, 4673
2359, 14845, 62497, 249
15018, 14845, 62328, 249
15090, 14846, 62315, 249
15471, 14849, 63997, 252
21044, 14880, 259495, 509
31816, 14965, 1714235, 1309
5963, 14920, 2114827, 1454
30458, 14998, 3317366, 1821
27753, 15061, 4114195, 2028
3869, 15006, 4716851, 2171
4615, 14955, 5227926, 2286
21628, 14987, 5421428, 2328
13827, 14982, 5401322, 2324
21139, 15012, 5559766, 2357
30655, 15087, 6720597, 2592
22123, 15120, 6927163, 2631
10875, 15100, 6980341, 2642
8815, 15070, 7135785, 2671
22479, 15105, 7363049, 2713
6485, 15065, 7680176, 2771
20350, 15089, 7775551, 2788
4072, 15038, 8308744, 2882
4854, 14991, 8754408, 2958
10243, 14969, 8818355, 2969
31642, 15046, 10064340, 3172
3493, 14993, 10632836, 3260
31453, 15068, 11826681, 3438
6104, 15028, 12139378, 3484
10683, 15009, 12169776, 3488
21732, 15039, 12318991, 3509
30885, 15110, 13394337, 3659
24806, 15153, 13755604, 3708
29049, 15215, 14555970, 3815
30575, 15283, 15539582, 3942
26961, 15334, 16073985, 4009
29918, 15398, 16939851, 4115
30069, 15462, 17809275, 4220
4368, 15414, 18268640, 4274
21560, 15440, 18353115, 4284
512, 15376, 564286, 751
1214, 15315, 1426339, 1194
578, 15252, 2352306, 1533
27437, 15304, 2976719, 1725
6811, 15268, 3270944, 1808
30259, 15331, 4209304, 2051
23619, 15365, 4481338, 2116
650, 15304, 5372275, 2317
21234, 15328, 5496856, 2344
26310, 15373, 5976410, 2444
28297, 15426, 6644612, 2577
12548, 15415, 6651278, 2579
20722, 15436, 6739714, 2596
28939, 15491, 7459256, 2731
14377, 15487, 7433753, 2726
14059, 15482, 7411705, 2722
11907, 15468, 7433326, 2726
27122, 15514, 7950923, 2819
19921, 15531, 7996874, 2827
10187, 15510, 8078999, 2842
9444, 15486, 8193286, 2862
18155, 15496, 8188918, 2861
13260, 15488, 8176191, 2859
20349, 15507, 8236906, 2870
13700, 15500, 8217283, 2866
3241, 15453, 8772144, 2961
25478, 15492, 9128931, 3021
19277, 15506, 9148948, 3024
30162, 15562, 9942857, 3153
20173, 15579, 9986255, 3160
6863, 15546, 10238927, 3199
10683, 15528, 10289971, 3207
23285, 15557, 10479498, 3237
26164, 15597, 10865828, 3296
7015, 15565, 11102609, 3332
12747, 15555, 11090572, 3330
14320, 15551, 11054594, 3324
9094, 15527, 11168763, 3341
29797, 15580, 11884091, 3447
15731, 15580, 11839997, 3440
10188, 15561, 11903446, 3450
902, 15508, 12649593, 3556
8887, 15484, 12763671, 3572
21673, 15506, 12856726, 3585
187, 15451, 13663195, 3696
9016, 15428, 13763551, 3709
2570, 15382, 14310555, 3782
27761, 15426, 14810138, 3848
17818, 15434, 14777377, 3844
21477, 15455, 14854845, 3854
12453, 15445, 14833870, 3851
24025, 15475, 15042145, 3878
32558, 15535, 789643, 888
27920, 15578, 1326979, 1151
21394, 15598, 1441002, 1200
15317, 15598, 1436223, 1198
16966, 15602, 1437725, 1199
18467, 15611, 1461226, 1208
15948, 15612, 1456545, 1206
8807, 15589, 1611199, 1269
23988, 15617, 1848085, 1359
4047, 15578, 2300200, 1516
387, 15527, 3079966, 1754
31122, 15580, 3896681, 1974
11302, 15566, 3945472, 1986
5276, 15532, 4289841, 2071
19731, 15546, 4334716, 2081
17755, 15553, 4336499, 2082
9895, 15535, 4429031, 2104
30245, 15584, 5135500, 2266
20478, 15600, 5197958, 2279
27436, 15639, 5644574, 2375
25264, 15670, 5931653, 2435
20173, 15684, 5978789, 2445
19245, 15695, 6000706, 2449
20582, 15710, 6059095, 2461
3722, 15671, 6507414, 2550
23596, 15696, 6690150, 2586
28840, 15738, 7227561, 2688
27306, 15775, 7635856, 2763
32319, 15828, 8491311, 2913
8532, 15805, 8634631, 2938
24126, 15831, 8828183, 2971
4147, 15794, 9234750, 3038
23224, 15817, 9380607, 3062
1542, 15772, 9995695, 3161
14187, 15767, 9971988, 3157
31974, 15817, 10766576, 3281
13132, 15809, 10755322, 3279
27820, 15846, 11172452, 3342
17251, 15850, 11143689, 3338
18158, 15857, 11125518, 3335
25181, 15885, 11360146, 3370
4354, 15850, 11735379, 3425
22620, 15870, 11840201, 3440
18140, 15876, 11819582, 3437
23947, 15900, 11982551, 3461
32053, 15949, 12741405, 3569
26909, 15982, 13067681, 3614
7322, 15956, 200616, 447
1393, 15913, 840780, 916
1333, 15870, 1478570, 1215
512, 15824, 2182435, 1477
8409, 15802, 2340503, 1529
18788, 15810, 2360120, 1536
28044, 15846, 2798538, 1672
18173, 15852, 2806283, 1675
25357, 15880, 3065253, 1750
1923, 15839, 3630816, 1905
31150, 15884, 4309597, 2075
18199, 15890, 4312643, 2076
26941, 15922, 4657096, 2158
17765, 15927, 4653384, 2157
9854, 15910, 4747042, 2178
29410, 15949, 5261508, 2293
9105, 15930, 5381649, 2319
14039, 15925, 5376403, 2318
13177, 15918, 5382616, 2320
5299, 15888, 5690265, 2385
8715, 15868, 5820977, 2412
19528, 15878, 5842514, 2417
26338, 15907, 6136718, 2477
22311, 15925, 6235466, 2497
31393, 15968, 6893705, 2625
6116, 15941, 7147666, 2673
17651, 15945, 7135749, 2671
22112, 15962, 7222242, 2687
110, 15918, 7903940, 2811
26812, 15948, 8212455, 2865
27762, 15980, 8577302, 2928
30303, 16019, 9121781, 3020
10144, 16003, 9191864, 3031
16841, 16005, 9168407, 3027
6473, 15979, 9392768, 3064
22971, 15998, 9500906, 3082
14487, 15994, 9481115, 3079
30341, 16033, 10016076, 3164
20920, 16046, 10053687, 3170
23091, 16065, 10160873, 3187
7138, 16041, 10348722, 3216
16985, 16043, 10323155, 3212
525, 16002, 10942694, 3307
20251, 16013, 10961685, 3310
6473, 15988, 11175657, 3343
22433, 16005, 11256547, 3355
11282, 15993, 11285863, 3359
29831, 16029, 341019, 583
30534, 16067, 896730, 946
13968, 16062, 905985, 951
20398, 16073, 953075, 976
25286, 16097, 1173352, 1083
2588, 16062, 1648016, 1283
25390, 16086, 1870895, 1367
9082, 16068, 1993764, 1412
23387, 16087, 2127710, 1458
2927, 16053, 2570854, 1603
23400, 16071, 2703691, 1644
11959, 16061, 2740290, 1655
6891, 16038, 2949408, 1717
25618, 16062, 3177164, 1782
954, 16024, 3752806, 1937
30162, 16060, 4253116, 2062
32289, 16101, 4912458, 2216
31959, 16141, 5538232, 2353
13457, 16135, 5542419, 2354
18134, 16140, 5538478, 2353
14815, 16137, 5528916, 2351
12411, 16128, 5549874, 2355
3473, 16097, 5937329, 2436
24848, 16118, 6113918, 2472
32598, 16159, 6775920, 2603
11291, 16147, 6817972, 2611
26304, 16172, 7057009, 2656
5775, 16147, 7307085, 2703
21209, 16159, 7352273, 2711
22928, 16175, 7446986, 2728
18458, 16180, 7441453, 2727
24600, 16200, 7596949, 2756
2297, 16167, 8050962, 2837
26039, 16191, 8268978, 2875
2833, 16159, 8682978, 2946
20938, 16170, 8717292, 2952
20161, 16179, 8734707, 2955
10826, 16167, 8782784, 2963
3690, 16137, 9136693, 3022
10704, 16124, 9185633, 3030
22909, 16140, 9273955, 3045
14970, 16138, 9254993, 3042
17453, 16141, 9236979, 3039
7438, 16121, 9395287, 3065
9345, 16105, 9481979, 3079
20929, 16116, 9514606, 3084
6457, 16094, 9712637, 3116
9923, 16080, 9779498, 3127
7867, 16061, 9915153, 3148
18602, 16066, 9906986, 3147
20007, 16075, 9920106, 3149
14004, 16071, 9906899, 3147
14268, 16067, 9891330, 3145
23867, 16085, 10009764, 3163
2792, 16055, 408202, 638
15013, 16053, 409769, 640
25207, 16074, 602347, 776
5843, 16051, 842152, 917
12230, 16043, 873782, 934
18813, 16049, 889374, 943
29942, 16080, 1329042, 1152
25468, 16101, 1527231, 1235
15520, 16100, 1524513, 1234
28551, 16128, 1873384, 1368
14676, 16125, 1873908, 1368
322, 16090, 2434697, 1560
13503, 16085, 2444301, 1563
12419, 16077, 2469054, 1571
12748, 16070, 2488401, 1577
8512, 16054, 2610904, 1615
10454, 16042, 2675214, 1635
22100, 16055, 2751154, 1658
17493, 16058, 2749619, 1658
32752, 16095, 3362809, 1833
10845, 16084, 3416458, 1848
28952, 16112, 3775236, 1942
32560, 16148, 4364106, 2089
23582, 16164, 4476206, 2115
26232, 16186, 4689129, 2165
3861, 16159, 5011950, 2238
417, 16125, 5543229, 2354
19882, 16133, 5561920, 2358
2724, 16104, 5941506, 2437
19264, 16110, 5950276, 2439
32627, 16145, 6529152, 2555
7987, 16128, 6659054, 2580
4311, 16103, 6946256, 2635
19877, 16111, 6961950, 2638
10633, 16100, 7011490, 2647
4860, 16076, 7267525, 2695
7593, 16058, 7406025, 2721
8036, 16041, 7527674, 2743
11001, 16031, 7565758, 2750
28593, 16057, 7885399, 2808
1251, 16026, 8334066, 2886
29914, 16055, 8725020, 2953
27348, 16078, 8976180, 2996
22718, 16092, 9050219, 3008
17152, 16094, 9033491, 3005
32432, 16128, 533226, 730
12221, 16120, 564109, 751
30651, 16150, 1004675, 1002
22200, 16162, 1078995, 1038
31757, 16194, 1583433, 1258
25839, 16214, 1773537, 1331
17468, 16216, 1773114, 1331
799, 16185, 2261564, 1503
12567, 16178, 2283930, 1511
7249, 16160, 2443605, 1563
10600, 16149, 2502180, 1581
9879, 16137, 2577767, 1605
9091, 16123, 2674214, 1635
3894, 16098, 2974559, 1724
17301, 16100, 2971431, 1723
14304, 16097, 2971939, 1723
31708, 16128, 3461241, 1860
27793, 16151, 3730230, 1931
20208, 16159, 3755984, 1938
7618, 16142, 3895756, 1973
31554, 16173, 4366779, 2089
174, 16141, 4873007, 2207
22147, 16153, 4935637, 2221
23117, 16166, 5022928, 2241
20207, 16174, 5045522, 2246
25889, 16193, 5223825, 2285
12939, 16187, 5234494, 2287
4838, 16165, 5480142, 2340
3316, 16140, 5796833, 2407
14388, 16137, 5791411, 2406
9561, 16125, 5865418, 2421
14812, 16123, 5857228, 2420
17372, 16125, 5848747, 2418
28850, 16150, 6155359, 2480
25598, 16168, 6318305, 2513
27317, 16189, 6549183, 2559
23695, 16203, 6646415, 2578
21068, 16212, 6679575, 2584
7795, 16196, 6804393, 2608
26251, 16215, 6987482, 2643
29119, 16240, 7296614, 2701
3318, 16216, 7605473, 2757
18351, 16220, 7599563, 2756
30246, 16247, 7963946, 2822
25556, 16264, 8115266, 2848
5045, 16243, 81704, 285
25, 16212, 585426, 765
14077, 16208, 593020, 770
27717, 16229, 844688, 919
26248, 16248, 1034279, 1016
18021, 16251, 1038286, 1018
18436, 16255, 1045372, 1022
8837, 16241, 1147607, 1071
26803, 16260, 1356333, 1164
30931, 16287, 1759898, 1326
6066, 16268, 1953322, 1397
628, 16239, 2409447, 1552
20309, 16246, 2436002, 1560
6411, 16228, 2612576, 1616
19044, 16233, 2622507, 1619
17026, 16234, 2618780, 1618
12851, 16228, 2635208, 1623
21208, 16237, 2676400, 1635
8469, 16223, 2783383, 1668
10855, 16214, 2831590, 1682
31689, 16242, 3269018, 1808
30049, 16267, 3614709, 1901
27690, 16288, 3848344, 1961
31083, 16315, 4243638, 2060
7093, 16299, 4391899, 2095
17815, 16301, 4388052, 2094
30137, 16326, 4729995, 2174
6306, 16308, 4904565, 2214
3147, 16285, 5211143, 2282
15881, 16285, 5201948, 2280
26203, 16303, 5371014, 2317
10566, 16293, 5420896, 2328
214, 16264, 5878590, 2424
8473, 16250, 5977527, 2444
18523, 16254, 5976046, 2444
5427, 16235, 6176122, 2485
30967, 16261, 6554670, 2560
19919, 16267, 6566886, 2562
9534, 16255, 6636215, 2576
22226, 16265, 6688017, 2586
10986, 16256, 6725753, 2593
16234, 16256, 6713765, 2591
32536, 16284, 7172606, 2678
10282, 16274, 7223745, 2687
12637, 16268, 7234352, 2689
5382, 16249, 7430925, 2725
23546, 16261, 7511716, 2740
17902, 16263, 7503212, 2739
25408, 16279, 75420, 274
13961, 16275, 84714, 291
13599, 16271, 97110, 311
12350, 16265, 123823, 351
27478, 16284, 343045, 585
8978, 16272, 435448, 659
7036, 16256, 583044, 763
7618, 16242, 711585, 843
22943, 16253, 788179, 887
7519, 16238, 918792, 958
31469, 16264, 1317873, 1147
4960, 16245, 1535917, 1239
11743, 16238, 1568159, 1252
18957, 16242, 1578166, 1256
23945, 16255, 1677235, 1295
7477, 16240, 1806299, 1343
22495, 16250, 1870094, 1367
10520, 16241, 1922933, 1386
1934, 16217, 2268367, 1506
16026, 16217, 2264565, 1504
12313, 16211, 2286594, 1512
593, 16185, 2696151, 1641
21181, 16193, 2733819, 1653
18369, 16196, 2737194, 1654
28478, 16216, 2986965, 1728
5021, 16198, 3192934, 1786
29726, 16220, 3495150, 1869
12205, 16214, 3516328, 1875
17846, 16216, 3514892, 1874
21205, 16224, 3550629, 1884
29567, 16246, 3841919, 1960
23803, 16258, 3930693, 1982
6162, 16242, 4093755, 2023
30784, 16266, 4438226, 2106
120, 16240, 4863201, 2205
4545, 16221, 5081589, 2254
13745, 16217, 5083309, 2254
7316, 16203, 5205656, 2281
26120, 16219, 5359093, 2314
15625, 16219, 5350845, 2313
20416, 16225, 5370975, 2317
1786, 16202, 5703949, 2388
25769, 16217, 5844408, 2417
24127, 16229, 5937091, 2436
9219, 16218, 6007558, 2451
28459, 16237, 6241819, 2498
4663, 16219, 6449485, 2539
7841, 16206, 6552953, 2559
14677, 16204, 6546105, 2558
10442, 16195, 6589221, 2566
5121, 16178, 6776691, 2603
2498, 16156, 129029, 359
20990, 16163, 166456, 407
10502, 16154, 217711, 466
29047, 16174, 484196, 695
4885, 16156, 687654, 829
29272, 16176, 961820, 980
12920, 16171, 977217, 988
5964, 16155, 1141822, 1068
21054, 16162, 1178224, 1085
6636, 16147, 1320618, 1149
8983, 16136, 1399988, 1183
2791, 16115, 1680002, 1296
26899, 16132, 1861351, 1364
1369, 16109, 2202720, 1484
16507, 16109, 2199490, 1483
28474, 16128, 2436807, 1561
30680, 16150, 2765947, 1663
23727, 16161, 2851735, 1688
2466, 16140, 3141239, 1772
18230, 16143, 3143152, 1772
26308, 16158, 3299696, 1816
6863, 16144, 3429332, 1851
19207, 16148, 3438600, 1854
29332, 16168, 3703577, 1924
11920, 16162, 3725842, 1930
9365, 16152, 3791689, 1947
1285, 16129, 4127959, 2031
13809, 16126, 4129890, 2032
32556, 16151, 4540098, 2130
22729, 16161, 4599765, 2144
20097, 16167, 4616511, 2148
18615, 16170, 4618617, 2149
8293, 16158, 4706688, 2169
4981, 16141, 4890781, 2211
3885, 16123, 5112983, 2261
4852, 16106, 5299116, 2301
9386, 16096, 5359867, 2315
25663, 16110, 5491016, 2343
5950, 16095, 5639543, 2374
13887, 16092, 5638372, 2374
270, 16069, 6009136, 2451
4888, 16053, 6189176, 2487
18005, 16055, 6185571, 2487
20702, 16062, 6208799, 2491
27744, 16079, 6404970, 2530
14140, 16077, 6400980, 2530
6839, 16064, 60909, 246
3388, 16045, 301718, 549
12602, 16040, 319013, 564
3247, 16021, 563173, 750
22000, 16029, 615695, 784
19865, 16034, 636710, 797
9096, 16024, 707395, 841
23346, 16034, 786013, 886
20474, 16040, 814097, 902
586, 16018, 1166726, 1080
25781, 16032, 1306005, 1142
25545, 16046, 1437747, 1199
26713, 16061, 1603459, 1266
20648, 16067, 1632087, 1277
481, 16045, 1986945, 1409
3834, 16028, 2202995, 1484
5335, 16013, 2367425, 1538
24902, 16026, 2479641, 1574
4086, 16009, 2684445, 1638
12515, 16004, 2698342, 1642
14877, 16003, 2696256, 1642
3921, 15986, 2904817, 1704
20528, 15992, 2930578, 1711
21639, 16000, 2972602, 1724
14415, 15998, 2971930, 1723
28345, 16015, 3188258, 1785
25569, 16028, 3315561, 1820
2045, 16008, 3592915, 1895
16743, 16009, 3588509, 1894
11049, 16002, 3618737, 1902
21486, 16009, 3656748, 1912
31647, 16031, 4002360, 2000
10718, 16024, 4037064, 2009
19597, 16029, 4049544, 2012
560, 16007, 4385596, 2094
20452, 16013, 4407518, 2099
10429, 16006, 4445656, 2108
19824, 16011, 4460061, 2111
5290, 15996, 4616987, 2148
860, 15975, 4935401, 2221
18047, 15977, 4934485, 2221
715, 15956, 5256968, 2292
11648, 15950, 5275746, 2296
22672, 15959, 5332030, 2309
31436, 15980, 5661904, 2379
12715, 15976, 5668926, 2380
1435, 15956, 5957928, 2440
16924, 15957, 5950875, 2439
5852, 15943, 61747, 248
31172, 15964, 386034, 621
4242, 15948, 577407, 759
8827, 15939, 647333, 804
213, 15918, 990889, 995
26222, 15932, 1137180, 1066
30251, 15951, 1420385, 1191
12593, 15947, 1434055, 1197
21018, 15954, 1467683, 1211
18411, 15957, 1474001, 1214
23831, 15967, 1557607, 1248
15181, 15966, 1556308, 1247
30942, 15986, 1863101, 1364
26939, 16001, 2025554, 1423
25191, 16013, 2138786, 1462
4297, 15997, 2324141, 1524
8074, 15987, 2406954, 1551
27780, 16003, 2593912, 1610
31731, 16024, 2928311, 1711
16784, 16025, 2925099, 1710
11595, 16019, 2947845, 1716
29204, 16036, 3180369, 1783
18449, 16039, 3183954, 1784
8385, 16029, 3259121, 1805
5115, 16015, 3416114, 1848
25900, 16028, 3543713, 1882
22415, 16036, 3594050, 1895
7419, 16025, 3689407, 1920
24786, 16036, 3787881, 1946
20295, 16041, 3807194, 1951
27839, 16056, 3989170, 1997
4442, 16041, 4164871, 2040
30816, 16060, 4451925, 2109
5249, 16046, 4602427, 2145
26293, 16059, 4736651, 2176
12400, 16055, 4748198, 2179
26087, 16068, 4876051, 2208
16351, 16068, 4869657, 2206
8268, 16058, 4944081, 2223
3848, 16042, 5135496, 2266
330, 16022, 5456104, 2335
29745, 16040, 2059, 45
23261, 16049, 71034, 266
15239, 16048, 71806, 267
14565, 16047, 74615, 273
2420, 16030, 319191, 564
28414, 16046, 520569, 721
1423, 16027, 800877, 894
16606, 16027, 800265, 894
26551, 16040, 944383, 971
32142, 16061, 1282511, 1132
13353, 16058, 1290420, 1135
14102, 16056, 1293729, 1137
13355, 16053, 1301554, 1140
4367, 16038, 1477676, 1215
19842, 16042, 1494574, 1222
19035, 16045, 1504268, 1226
23782, 16055, 1579955, 1256
19762, 16059, 1595710, 1263
25037, 16070, 1697925, 1303
31534, 16089, 2004709, 1415
22199, 16096, 2050296, 1431
21245, 16102, 2081820, 1442
1789, 16084, 2342803, 1530
8878, 16075, 2406533, 1551
31309, 16094, 2701365, 1643
8338, 16085, 2775029, 1665
2758, 16068, 2998884, 1731
31610, 16087, 3303954, 1817
20864, 16093, 3328874, 1824
30073, 16110, 3573923, 1890
1868, 16092, 3827755, 1956
25488, 16103, 3935212, 1983
18331, 16105, 3936516, 1984
22876, 16113, 3989700, 1997
24162, 16123, 4066751, 2016
7349, 16112, 4159044, 2039
26921, 16125, 4301494, 2074
18013, 16127, 4300557, 2073
14964, 16126, 4296834, 2072
15346, 16126, 4292182, 2071
27596, 16140, 4452268, 2110
28396, 16155, 4635379, 2152
32001, 16174, 4944625, 2223
7939, 16164, 5023405, 2241
18210, 16166, 5022351, 2241
23605, 16175, 5085241, 2255
20595, 16180, 5103278, 2259
21329, 16186, 5129967, 2264
10281, 16179, 5166996, 2273
23479, 16188, 5226844, 2286
2555, 16172, 109240, 330
23932, 16181, 183822, 428
11010, 16175, 216730, 465
25392, 16186, 321606, 567
2376, 16169, 556953, 746
7912, 16159, 640437, 800
15735, 16159, 639868, 799
1106, 16141, 918144, 958
27376, 16154, 1072283, 1035
30723, 16171, 1331737, 1154
22640, 16178, 1381455, 1175
21495, 16184, 1414409, 1189
13688, 16181, 1420301, 1191
4946, 16168, 1572883, 1254
12253, 16164, 1589678, 1260
3260, 16149, 1790814, 1338
13327, 16146, 1798331, 1341
27619, 16159, 1956288, 1398
13678, 16156, 1961387, 1400
29102, 16171, 2162412, 1470
10304, 16164, 2201511, 1483
10584, 16158, 2236543, 1495
31460, 16176, 2516978, 1586
21140, 16181, 2543701, 1594
6173, 16169, 2661450, 1631
30282, 16186, 2898211, 1702
14780, 16185, 2897100, 1702
5638, 16173, 3027323, 1739
15105, 16172, 3025054, 1739
6787, 16161, 3127035, 1768
23811, 16170, 3193374, 1787
19694, 16174, 3204405, 1790
18796, 16177, 3208786, 1791
3586, 16162, 3394133, 1842
22439, 16169, 3437048, 1853
16004, 16169, 3432984, 1852
3675, 16155, 3614522, 1901
9185, 16147, 3667924, 1915
25505, 16158, 3767450, 1940
11005, 16152, 3794443, 1947
3979, 16138, 3965316, 1991
16411, 16138, 3960712, 1990
26641, 16150, 4086275, 2021
24231, 16159, 4158463, 2039
20630, 16164, 4177106, 2043
29915, 16180, 4394648, 2096
30504, 16196, 4630592, 2151
13019, 16193, 4637000, 2153
83, 16175, 4935833, 2221
4531, 16162, 53685, 231
19877, 16166, 69766, 264
14652, 16165, 72363, 269
19940, 16169, 88909, 298
2567, 16154, 304453, 551
6885, 16144, 404124, 635
28307, 16158, 575677, 758
13138, 16155, 585602, 765
10531, 16149, 621618, 788
2646, 16134, 832183, 912
25162, 16144, 925558, 962
6565, 16133, 1030565, 1015
25166, 16143, 1123599, 1059
9278, 16136, 1176667, 1084
8581, 16128, 1241074, 1114
24560, 16137, 1321467, 1149
17309, 16138, 1321526, 1149
14109, 16136, 1324734, 1150
1366, 16120, 1573404, 1254
5867, 16109, 1692026, 1300
29965, 16124, 1909768, 1381
30640, 16140, 2148409, 1465
2012, 16124, 2373810, 1540
13941, 16122, 2376535, 1541
24360, 16131, 2451124, 1565
2561, 16116, 2657832, 1630
8072, 16107, 2728339, 1651
18212, 16109, 2730269, 1652
23275, 16117, 2785393, 1668
6083, 16106, 2896261, 1701
12782, 16103, 2905483, 1704
22141, 16109, 2943396, 1715
25577, 16119, 3041255, 1743
4281, 16106, 3195818, 1787
5525, 16095, 3318305, 1821
17686, 16096, 3317417, 1821
19031, 16099, 3323365, 1823
23051, 16106, 3373880, 1836
16440, 16106, 3370218, 1835
28181, 16119, 3529723, 1878
22464, 16126, 3570804, 1889
22572, 16133, 3613237, 1900
1065, 16117, 3862611, 1965
26865, 16128, 3987096, 1996
32303, 16146, 4274000, 2067
4024, 16133, 4432698, 2105
15713, 16133, 4427964, 2104
29961, 16148, 4635273, 2152
26639, 16159, 4752155, 2179
27958, 16172, 139454, 373
18138, 16174, 143575, 378
22199, 16180, 183532, 428
10069, 16174, 224553, 473
29520, 16188, 420695, 648
16456, 16188, 420310, 648
29492, 16202, 614572, 783
10610, 16196, 648260, 805
9199, 16189, 701294, 837
27996, 16201, 853393, 923
2297, 16186, 1064203, 1031
17661, 16187, 1065419, 1032
328, 16170, 1339131, 1157
17180, 16171, 1338781, 1157
14181, 16169, 1341639, 1158
29172, 16183, 1524359, 1234
5044, 16171, 1657713, 1287
15504, 16171, 1656393, 1287
17909, 16172, 1657874, 1287
6614, 16162, 1755162, 1324
32280, 16179, 2034729, 1426
32149, 16196, 2308548, 1519
32478, 16213, 2592658, 1610
21718, 16218, 2622588, 1619
26062, 16228, 2724298, 1650
26809, 16239, 2842007, 1685
32577, 16256, 3126286, 1768
15060, 16255, 3124459, 1767
4136, 16242, 3278855, 1810
161, 16225, 3552804, 1884
27303, 16236, 3680537, 1918
9717, 16230, 3722100, 1929
19472, 16233, 3729357, 1931
25205, 16242, 3811375, 1952
8842, 16235, 3865752, 1966
19606, 16238, 3873743, 1968
21756, 16243, 3902045, 1975
8686, 16235, 3958643, 1989
22580, 16241, 3997220, 1999
29827, 16255, 4188923, 2046
32090, 16271, 4450393, 2109
16725, 16271, 4445892, 2108
31533, 16287, 137917, 371
6403, 16277, 241045, 490
27569, 16288, 375447, 612
1835, 16273, 595402, 771
20754, 16277, 615935, 784
7308, 16268, 699967, 836
29533, 16281, 884270, 940
15241, 16280, 884477, 940
21304, 16285, 910034, 953
24026, 16293, 971893, 985
12393, 16289, 986801, 993
444, 16273, 1248397, 1117
11968, 16269, 1266459, 1125
29847, 16283, 1457583, 1207
9769, 16277, 1500313, 1224
28668, 16289, 1658694, 1287
13116, 16286, 1667444, 1291
23513, 16293, 1720006, 1311
12954, 16290, 1729797, 1315
24133, 16298, 1791811, 1338
14890, 16297, 1792007, 1338
20596, 16301, 1809284, 1345
15562, 16301, 1807977, 1344
4530, 16289, 1949246, 1396
28419, 16301, 2099083, 1448
19610, 16304, 2108206, 1451
19535, 16307, 2116785, 1454
7700, 16299, 2190827, 1480
26878, 16309, 2303603, 1517
21803, 16314, 2332229, 1527
9314, 16307, 2380092, 1542
22513, 16313, 2417115, 1554
21839, 16318, 2445898, 1563
2253, 16304, 2645674, 1626
9604, 16298, 2688827, 1639
19038, 16300, 2693744, 1641
10183, 16294, 2729139, 1652
12218, 16290, 2743276, 1656
14506, 16289, 2743722, 1656
28500, 16301, 2892469, 1700
20737, 16305, 2909509, 1705
27028, 16315, 3023180, 1738
14293, 16313, 3024257, 1739
19519, 16316, 3031597, 1741
23101, 16322, 3075082, 1753
12791, 16319, 3084569, 1756
5174, 16308, 3206795, 1790
4244, 16296, 3350275, 1830
2513, 16283, 3538220, 1881
12859, 16280, 3546453, 1883
14, 16264, 3808803, 1951
19713, 16267, 3816920, 1953
12792, 16264, 3825202, 1955
23573, 16271, 3874896, 1968
10096, 16265, 3909183, 1977
32130, 16280, 4156982, 2038
